{
  "project_info": {
    "project_number": "724441690472",
    "firebase_url": "https://banderas-app.firebaseio.com",
    "project_id": "banderas-app",
    "storage_bucket": "banderas-app.appspot.com"
  },
  "client": [
    {
      "client_info": {
        "mobilesdk_app_id": "1:724441690472:android:2ba96b079b53a6f4e9a6dd",
        "android_client_info": {
          "package_name": "com.example.paisesapp"
        }
      },
      "oauth_client": [
        {
          "client_id": "724441690472-7rllbbdu4k09svgh99ckcmtaqg1u0ajr.apps.googleusercontent.com",
          "client_type": 3
        }
      ],
      "api_key": [
        {
          "current_key": "AIzaSyD46YK9rtUez3NZ-Brw6eUiMMTDPBHxC30"
        }
      ],
      "services": {
        "appinvite_service": {
          "other_platform_oauth_client": [
            {
              "client_id": "724441690472-7rllbbdu4k09svgh99ckcmtaqg1u0ajr.apps.googleusercontent.com",
              "client_type": 3
            }
          ]
        }
      }
    }
  ],
  "configuration_version": "1"
}